module NairiCrypto

go 1.18

require (
	github.com/Workiva/go-datastructures v1.0.53 // indirect
	github.com/asynkron/protoactor-go v0.0.0-20220508141221-685ce4205646 // indirect
	github.com/beorn7/perks v1.0.1 // indirect
	github.com/cespare/xxhash/v2 v2.1.2 // indirect
	github.com/emirpasic/gods v1.18.1 // indirect
	github.com/go-logr/logr v1.2.3 // indirect
	github.com/go-logr/stdr v1.2.2 // indirect
	github.com/golang/protobuf v1.5.2 // indirect
	github.com/google/uuid v1.3.0 // indirect
	github.com/lithammer/shortuuid/v4 v4.0.0 // indirect
	github.com/matttproud/golang_protobuf_extensions v1.0.2-0.20181231171920-c182affec369 // indirect
	github.com/orcaman/concurrent-map v0.0.0-20190107190726-7ed82d9cb717 // indirect
	github.com/prometheus/client_golang v1.12.1 // indirect
	github.com/prometheus/client_model v0.2.0 // indirect
	github.com/prometheus/common v0.32.1 // indirect
	github.com/prometheus/procfs v0.7.3 // indirect
	github.com/spaolacci/murmur3 v0.0.0-20180118202830-f09979ecbc72 // indirect
	go.opentelemetry.io/otel v1.7.0 // indirect
	go.opentelemetry.io/otel/exporters/prometheus v0.27.0 // indirect
	go.opentelemetry.io/otel/internal/metric v0.27.0 // indirect
	go.opentelemetry.io/otel/metric v0.27.0 // indirect
	go.opentelemetry.io/otel/sdk v1.4.0 // indirect
	go.opentelemetry.io/otel/sdk/export/metric v0.27.0 // indirect
	go.opentelemetry.io/otel/sdk/metric v0.27.0 // indirect
	go.opentelemetry.io/otel/trace v1.7.0 // indirect
	golang.org/x/sys v0.0.0-20220209214540-3681064d5158 // indirect
	google.golang.org/protobuf v1.27.1 // indirect
)
